…
df_pivot 
```

    ## # A tibble: 48 × 4
    ##    bacteria                        gram     antibiotic   value
    ##    <fct>                           <chr>    <chr>        <dbl>
    ##  1 Bacillus anthracis              positive penicillin   0.001
    ##  2 Staphylococcus albus            positive neomycin     0.001
    ##  3 Staphylococcus aureus           positive neomycin     0.001
    ##  4 Streptococcus hemolyticus       positive penicillin   0.001
    ##  5 Diplococcus pneumonia           positive penicillin   0.005
    ##  6 Streptococcus viridans          positive penicillin   0.005
    ##  7 Bacillus anthracis              positive neomycin     0.007
    ##  8 Staphylococcus albus            positive penicillin   0.007
    ##  9 Salmonella (Eberthella) typhosa negative neomycin     0.008
    ## 10 Bacillus anthracis              positive streptomycin 0.01 
    ## # ℹ 38 more rows
…
