…
``` r
print("Very good!")
```

    ## [1] "Very good!"

### **q4** Join `df_covid` with `df_q3` by the `fips` column. Use the proper type of join to preserve *only* the rows in `df_covid`.

``` r
## TASK: Join df_covid and df_q3 by fips.
df_q4 <- left_join(df_covid, df_q3, by = 'fips')
df_q4
```

    ## # A tibble: 2,502,832 × 10
    ##    date       county      state  fips  cases deaths id    `Geographic Area Name`
    ##    <date>     <chr>       <chr>  <chr> <dbl>  <dbl> <chr> <chr>                 
    ##  1 2020-01-21 Snohomish   Washi… 53061     1      0 0500… Snohomish County, Was…
    ##  2 2020-01-22 Snohomish   Washi… 53061     1      0 0500… Snohomish County, Was…
    ##  3 2020-01-23 Snohomish   Washi… 53061     1      0 0500… Snohomish County, Was…
    ##  4 2020-01-24 Cook        Illin… 17031     1      0 0500… Cook County, Illinois 
    ##  5 2020-01-24 Snohomish   Washi… 53061     1      0 0500… Snohomish County, Was…
    ##  6 2020-01-25 Orange      Calif… 06059     1      0 0500… Orange County, Califo…
    ##  7 2020-01-25 Cook        Illin… 17031     1      0 0500… Cook County, Illinois 
    ##  8 2020-01-25 Snohomish   Washi… 53061     1      0 0500… Snohomish County, Was…
    ##  9 2020-01-26 Maricopa    Arizo… 04013     1      0 0500… Maricopa County, Ariz…
    ## 10 2020-01-26 Los Angeles Calif… 06037     1      0 0500… Los Angeles County, C…
    ## # ℹ 2,502,822 more rows
    ## # ℹ 2 more variables: `Estimate!!Total` <int>, `Margin of Error!!Total` <chr>
…
<!-- ------------------------- -->

### **q5** Use the `population` estimates in `df_data` to normalize `cases` and `deaths` to produce per 100,000 counts \[3\]. Store these values in the columns `cases_per100k` and `deaths_per100k`.

``` r
## TASK: Normalize cases and deaths
df_normalized <- df_data %>% 
  mutate(
    cases_per100k = 1e5 * cases / population,
    deaths_per100k = 1e5 * deaths / population
  )
df_normalized
```

    ## # A tibble: 2,502,832 × 9
    ##    date       county      state      fips  cases deaths population cases_per100k
    ##    <date>     <chr>       <chr>      <chr> <dbl>  <dbl>      <int>         <dbl>
    ##  1 2020-01-21 Snohomish   Washington 53061     1      0     786620       0.127  
    ##  2 2020-01-22 Snohomish   Washington 53061     1      0     786620       0.127  
    ##  3 2020-01-23 Snohomish   Washington 53061     1      0     786620       0.127  
    ##  4 2020-01-24 Cook        Illinois   17031     1      0    5223719       0.0191 
    ##  5 2020-01-24 Snohomish   Washington 53061     1      0     786620       0.127  
    ##  6 2020-01-25 Orange      California 06059     1      0    3164182       0.0316 
    ##  7 2020-01-25 Cook        Illinois   17031     1      0    5223719       0.0191 
    ##  8 2020-01-25 Snohomish   Washington 53061     1      0     786620       0.127  
    ##  9 2020-01-26 Maricopa    Arizona    04013     1      0    4253913       0.0235 
    ## 10 2020-01-26 Los Angeles California 06037     1      0   10098052       0.00990
    ## # ℹ 2,502,822 more rows
    ## # ℹ 1 more variable: deaths_per100k <dbl>
…
``` r
## TASK: Find the top 10 max cases_per100k counties; report populations as well
df_normalized %>%
  group_by(county, state, population) %>%
  summarize(top_cases_per100k = max(cases_per100k)) %>%
  arrange(desc(top_cases_per100k))
```

    ## `summarise()` has grouped output by 'county', 'state'. You can override using
    ## the `.groups` argument.

    ## # A tibble: 3,277 × 4
    ## # Groups:   county, state [3,277]
    ##    county                   state        population top_cases_per100k
    ##    <chr>                    <chr>             <int>             <dbl>
    ##  1 Loving                   Texas               102           192157.
    ##  2 Chattahoochee            Georgia           10767            69527.
    ##  3 Nome Census Area         Alaska             9925            62922.
    ##  4 Northwest Arctic Borough Alaska             7734            62542.
    ##  5 Crowley                  Colorado           5630            59449.
    ##  6 Bethel Census Area       Alaska            18040            57439.
    ##  7 Dewey                    South Dakota       5779            54317.
    ##  8 Dimmit                   Texas             10663            54019.
    ##  9 Jim Hogg                 Texas              5282            50133.
    ## 10 Kusilvak Census Area     Alaska             8198            49817.
    ## # ℹ 3,267 more rows

``` r
## TASK: Find the top 10 deaths_per100k counties; report populations as well
df_normalized %>%
  group_by(county, state, population) %>%
  summarize(top_deaths_per100k = max(deaths_per100k)) %>%
  arrange(desc(top_deaths_per100k))
```

    ## `summarise()` has grouped output by 'county', 'state'. You can override using
    ## the `.groups` argument.

    ## # A tibble: 3,277 × 4
    ## # Groups:   county, state [3,277]
    ##    county            state        population top_deaths_per100k
    ##    <chr>             <chr>             <int>              <dbl>
    ##  1 McMullen          Texas               662              1360.
    ##  2 Galax city        Virginia           6638              1175.
    ##  3 Motley            Texas              1156              1125.
    ##  4 Hancock           Georgia            8535              1054.
    ##  5 Emporia city      Virginia           5381              1022.
    ##  6 Towns             Georgia           11417              1016.
    ##  7 Jerauld           South Dakota       2029               986.
    ##  8 Loving            Texas               102               980.
    ##  9 Robertson         Kentucky           2143               980.
    ## 10 Martinsville city Virginia          13101               946.
    ## # ℹ 3,267 more rows
…
