…
    ## New names:
    ## Rows: 3220 Columns: 5
    ## ── Column specification
    ## ──────────────────────────────────────────────────────── Delimiter: "," chr
    ## (3): Geography, Geographic Area Name, Margin of Error!!Total dbl (1):
    ## Estimate!!Total lgl (1): ...5
    ## ℹ Use `spec()` to retrieve the full column specification for this data. ℹ
    ## Specify the column types or set `show_col_types = FALSE` to quiet this message.
    ## • `` -> `...5`

``` r
df_pop
```

    ## # A tibble: 3,220 × 5
    ##    Geography      `Geographic Area Name`  population_estimate margin_error ...5 
    ##    <chr>          <chr>                                 <dbl> <chr>        <lgl>
    ##  1 0500000US01001 Autauga County, Alabama               55200 *****        NA   
    ##  2 0500000US01003 Baldwin County, Alabama              208107 *****        NA   
    ##  3 0500000US01005 Barbour County, Alabama               25782 *****        NA   
    ##  4 0500000US01007 Bibb County, Alabama                  22527 *****        NA   
    ##  5 0500000US01009 Blount County, Alabama                57645 *****        NA   
    ##  6 0500000US01011 Bullock County, Alabama               10352 *****        NA   
    ##  7 0500000US01013 Butler County, Alabama                20025 *****        NA   
    ##  8 0500000US01015 Calhoun County, Alabama              115098 *****        NA   
    ##  9 0500000US01017 Chambers County, Alaba…               33826 *****        NA   
    ## 10 0500000US01019 Cherokee County, Alaba…               25853 *****        NA   
    ## # ℹ 3,210 more rows
…
    ## Rows: 3220 Columns: 243
    ## ── Column specification ────────────────────────────────────────────────────────
    ## Delimiter: ","
    ## chr  (66): Geography, Geographic Area Name, Estimate!!Median income (dollars...
    ## dbl (176): Estimate!!Number!!HOUSEHOLD INCOME BY RACE AND HISPANIC OR LATINO...
    ## lgl   (1): ...243
    ## 
    ## ℹ Use `spec()` to retrieve the full column specification for this data.
    ## ℹ Specify the column types or set `show_col_types = FALSE` to quiet this message.

``` r
df_income
```

    ## # A tibble: 3,220 × 243
    ##    Geography      `Geographic Area Name`   Estimate!!Number!!HOUSEHOLD INCOME …¹
    ##    <chr>          <chr>                                                    <dbl>
    ##  1 0500000US01001 Autauga County, Alabama                                  21115
    ##  2 0500000US01003 Baldwin County, Alabama                                  78622
    ##  3 0500000US01005 Barbour County, Alabama                                   9186
    ##  4 0500000US01007 Bibb County, Alabama                                      6840
    ##  5 0500000US01009 Blount County, Alabama                                   20600
    ##  6 0500000US01011 Bullock County, Alabama                                   3609
    ##  7 0500000US01013 Butler County, Alabama                                    6708
    ##  8 0500000US01015 Calhoun County, Alabama                                  45033
    ##  9 0500000US01017 Chambers County, Alabama                                 13516
    ## 10 0500000US01019 Cherokee County, Alabama                                 10606
    ## # ℹ 3,210 more rows
    ## # ℹ abbreviated name:
    ## #   ¹​`Estimate!!Number!!HOUSEHOLD INCOME BY RACE AND HISPANIC OR LATINO ORIGIN OF HOUSEHOLDER!!Households`
    ## # ℹ 240 more variables:
    ## #   `Margin of Error!!Number MOE!!HOUSEHOLD INCOME BY RACE AND HISPANIC OR LATINO ORIGIN OF HOUSEHOLDER!!Households` <dbl>,
    ## #   `Estimate!!Number!!HOUSEHOLD INCOME BY RACE AND HISPANIC OR LATINO ORIGIN OF HOUSEHOLDER!!Households!!One race--!!White` <dbl>,
    ## #   `Margin of Error!!Number MOE!!HOUSEHOLD INCOME BY RACE AND HISPANIC OR LATINO ORIGIN OF HOUSEHOLDER!!Households!!One race--!!White` <dbl>, …
…
``` r
df_pop <- df_pop %>%
  rename(geographic_area_name = `Geographic Area Name`)

df_data <-
  right_join(df_pop,df_q4, by = c("Geography", "geographic_area_name"))
df_data
```

    ## # A tibble: 15,286 × 12
    ##    Geography      geographic_area_name    population_estimate margin_error ...5 
    ##    <chr>          <chr>                                 <dbl> <chr>        <lgl>
    ##  1 0500000US01001 Autauga County, Alabama               55200 *****        NA   
    ##  2 0500000US01001 Autauga County, Alabama               55200 *****        NA   
    ##  3 0500000US01001 Autauga County, Alabama               55200 *****        NA   
    ##  4 0500000US01001 Autauga County, Alabama               55200 *****        NA   
    ##  5 0500000US01001 Autauga County, Alabama               55200 *****        NA   
    ##  6 0500000US01003 Baldwin County, Alabama              208107 *****        NA   
    ##  7 0500000US01003 Baldwin County, Alabama              208107 *****        NA   
    ##  8 0500000US01003 Baldwin County, Alabama              208107 *****        NA   
    ##  9 0500000US01003 Baldwin County, Alabama              208107 *****        NA   
    ## 10 0500000US01003 Baldwin County, Alabama              208107 *****        NA   
    ## # ℹ 15,276 more rows
    ## # ℹ 7 more variables: category <chr>, income_estimate <dbl>, income_moe <dbl>,
    ## #   income_SE <dbl>, income_CV <dbl>, income_lo <dbl>, income_hi <dbl>
…
