…
df_long <- df_clean %>%
  pivot_longer(
    cols = c(Memory_Sober, Memory_Drunk,
             Balance_Sober, Balance_Drunk,
             BAC_Sober, BAC_Drunk),
    names_to = c("Metric", "Condition"),
    names_sep = "_",
    values_to = "Value"
  )

df_long
```

    ## # A tibble: 600 × 7
    ##    Major `Name:`       `Memory difference` `Balance difference` Metric Condition
    ##    <chr> <chr>                       <dbl>                <dbl> <chr>  <chr>    
    ##  1 Arts  Mathis Eklund               -12                    -41 Memory Sober    
    ##  2 Arts  Mathis Eklund               -12                    -41 Memory Drunk    
    ##  3 Arts  Mathis Eklund               -12                    -41 Balan… Sober    
    ##  4 Arts  Mathis Eklund               -12                    -41 Balan… Drunk    
    ##  5 Arts  Mathis Eklund               -12                    -41 BAC    Sober    
    ##  6 Arts  Mathis Eklund               -12                    -41 BAC    Drunk    
    ##  7 Arts  Jermaine Tiw…                -4.7                   -7 Memory Sober    
    ##  8 Arts  Jermaine Tiw…                -4.7                   -7 Memory Drunk    
    ##  9 Arts  Jermaine Tiw…                -4.7                   -7 Balan… Sober    
    ## 10 Arts  Jermaine Tiw…                -4.7                   -7 Balan… Drunk    
    ## # ℹ 590 more rows
    ## # ℹ 1 more variable: Value <dbl>
…
``` r
# Pivot the data to long format for Memory and Balance differences
df_diff_long <- df %>%
  pivot_longer(
    cols = c(`Memory difference`, `Balance difference`),
    names_to = "Metric",
    values_to = "Difference"
  ) 
df_diff_long
```

    ## # A tibble: 200 × 10
    ##    `Major:` `Name:`  Memory Game (seconds…¹ Balance Test Eyes Cl…² `BAC - Sober`
    ##    <chr>    <chr>                     <dbl>                  <dbl>         <dbl>
    ##  1 Arts     Mathis …                  102                       60         0.001
    ##  2 Arts     Mathis …                  102                       60         0.001
    ##  3 Arts     Jermain…                   62.5                     26         0.006
    ##  4 Arts     Jermain…                   62.5                     26         0.006
    ##  5 Arts     Sage Su…                   85.4                     54         0    
    ##  6 Arts     Sage Su…                   85.4                     54         0    
    ##  7 Arts     Lynnea …                   53.8                     39         0    
    ##  8 Arts     Lynnea …                   53.8                     39         0    
    ##  9 Arts     Vanessa…                   63.4                     16         0    
    ## 10 Arts     Vanessa…                   63.4                     16         0    
    ## # ℹ 190 more rows
    ## # ℹ abbreviated names: ¹​`Memory Game (seconds) - Sober`,
    ## #   ²​`Balance Test Eyes Closed (seconds) - Sober`
    ## # ℹ 5 more variables: `Memory Game (seconds) - Drunk` <dbl>,
    ## #   `Balance Test Eyes Closed (seconds) - Drunk` <dbl>, `BAC - Drunk` <dbl>,
    ## #   Metric <chr>, Difference <dbl>
…
